{
    "Packages": [
        {
            "Id": "20200203",
            "Items": [
                {
                    "Images": [
                        {
                            "Type": "DAILYCONTENTLISTIMAGE",
                            "Value": "stress_IFG-20302738x440.jpg"
                        },
                        {
                            "Type": "DAILYCONTENTLISTIMAGEURL",
                            "Value": "https://content.mcmapp.mayoclinic.org/api/Content/Image/mymayoclinic/image/images?imageId=stress_IFG-20302738x440.jpg&width=&height="
                        },
                        {
                            "Type": "INFOGRAPHIC",
                            "Value": "https://content.mcmapp.mayoclinic.org/api/Content/Image/mymayoclinic/image/infographicimages?imageId=IFG-20302738&width=&height="
                        },
                        {
                            "Type": "TODAYCONTENTITEMIMAGE",
                            "Value": "stress_IFG-20302738x2160.jpg"
                        },
                        {
                            "Type": "TODAYCONTENTITEMIMAGEURL",
                            "Value": "https://content.mcmapp.mayoclinic.org/api/Content/Image/mymayoclinic/image/images?imageId=stress_IFG-20302738x2160.jpg&width=&height="
                        },
                        {
                            "Type": "IMAGEGRADIENT",
                            "Value": "LIGHT"
                        }
                    ],
                    "IsScheduled": false,
                    "Author": {
                        "Name": "Mayo Clinic Staff",
                        "Photo": ""
                    },
                    "ReadTime": "0",
                    "Id": "IFG-20302738",
                    "Category": {
                        "Id": "stress",
                        "Type": "stress",
                        "Name": "Stress and Resiliency"
                    },
                    "Name": "\"You are an empowered, competent individual...\"",
                    "Description": "\"You are an empowered, competent individual ... \"",
                    "Type": "QUOTE",
                    "Version": "0.0"
                },
                {
                    "Images": [
                        {
                            "Type": "DAILYCONTENTLISTIMAGE",
                            "Value": "weightloss_VID-20346883x440.jpg"
                        },
                        {
                            "Type": "DAILYCONTENTLISTIMAGEURL",
                            "Value": "https://content.mcmapp.mayoclinic.org/api/Content/Image/mymayoclinic/image/images?imageId=weightloss_VID-20346883x440.jpg&width=&height="
                        },
                        {
                            "Type": "DAILYCONTENTITEMIMAGE",
                            "Value": "weightloss_VID-20346883x1136.jpg"
                        },
                        {
                            "Type": "DAILYCONTENTITEMIMAGEURL",
                            "Value": "https://content.mcmapp.mayoclinic.org/api/Content/Image/mymayoclinic/image/images?imageId=weightloss_VID-20346883x1136.jpg&width=&height="
                        }
                    ],
                    "IsScheduled": true,
                    "Author": {
                        "Name": "Mayo Clinic Staff",
                        "Photo": ""
                    },
                    "ReadTime": "0",
                    "Id": "VID-20346883",
                    "Category": {
                        "Id": "weightloss",
                        "Type": "weightloss",
                        "Name": "Weight Loss"
                    },
                    "Name": "7 ways to create a new habit",
                    "Description": "Forget about willpower. Here's what really works to set a healthier habit.",
                    "Type": "VIDEO",
                    "Version": "0.0"
                },
                {
                    "Images": [
                        {
                            "Type": "DAILYCONTENTLISTIMAGE",
                            "Value": "stayinghealthy_CPT-20470958x440.jpg"
                        },
                        {
                            "Type": "DAILYCONTENTLISTIMAGEURL",
                            "Value": "https://content.mcmapp.mayoclinic.org/api/Content/Image/mymayoclinic/image/images?imageId=stayinghealthy_CPT-20470958x440.jpg&width=&height="
                        },
                        {
                            "Type": "DAILYCONTENTITEMIMAGE",
                            "Value": "stayinghealthy_CPT-20470958x1136.jpg"
                        },
                        {
                            "Type": "DAILYCONTENTITEMIMAGEURL",
                            "Value": "https://content.mcmapp.mayoclinic.org/api/Content/Image/mymayoclinic/image/images?imageId=stayinghealthy_CPT-20470958x1136.jpg&width=&height="
                        },
                        {
                            "Type": "TODAYCONTENTITEMIMAGE",
                            "Value": "stayinghealthy_CPT-20470958x2160.jpg"
                        },
                        {
                            "Type": "TODAYCONTENTITEMIMAGEURL",
                            "Value": "https://content.mcmapp.mayoclinic.org/api/Content/Image/mymayoclinic/image/images?imageId=stayinghealthy_CPT-20470958x2160.jpg&width=&height="
                        },
                        {
                            "Type": "IMAGEGRADIENT",
                            "Value": "LIGHT"
                        }
                    ],
                    "IsScheduled": true,
                    "Author": {
                        "Name": "Mayo Clinic Staff",
                        "Photo": ""
                    },
                    "ReadTime": "3",
                    "Id": "CPT-20470958",
                    "Category": {
                        "Id": "stayinghealthy",
                        "Type": "stayinghealthy",
                        "Name": "Staying Healthy"
                    },
                    "Name": "Understanding the MELD score",
                    "Description": "Mayo Clinic liver transplant expert Bashar A. Aqel, M.D., answers questions about the MELD score and what it means for liver transplant.",
                    "Type": "ARTICLE",
                    "Version": "0.0"
                },
                {
                    "Images": [
                        {
                            "Type": "IMAGEGRADIENT",
                            "Value": "DARK"
                        },
                        {
                            "Type": "DAILYCONTENTLISTIMAGE",
                            "Value": "fitness_ART-20047673x440.jpg"
                        },
                        {
                            "Type": "DAILYCONTENTLISTIMAGEURL",
                            "Value": "https://content.mcmapp.mayoclinic.org/api/Content/Image/mymayoclinic/image/images?imageId=fitness_ART-20047673x440.jpg&width=&height="
                        },
                        {
                            "Type": "DAILYCONTENTITEMIMAGE",
                            "Value": "fitness_ART-20047673x1136.jpg"
                        },
                        {
                            "Type": "DAILYCONTENTITEMIMAGEURL",
                            "Value": "https://content.mcmapp.mayoclinic.org/api/Content/Image/mymayoclinic/image/images?imageId=fitness_ART-20047673x1136.jpg&width=&height="
                        },
                        {
                            "Type": "TODAYCONTENTITEMIMAGE",
                            "Value": "fitness_ART-20047673x2160.jpg"
                        },
                        {
                            "Type": "TODAYCONTENTITEMIMAGEURL",
                            "Value": "https://content.mcmapp.mayoclinic.org/api/Content/Image/mymayoclinic/image/images?imageId=fitness_ART-20047673x2160.jpg&width=&height="
                        }
                    ],
                    "IsScheduled": false,
                    "Author": {
                        "Name": "Mayo Clinic Staff",
                        "Photo": ""
                    },
                    "ReadTime": "2",
                    "Id": "ART-20047673",
                    "Category": {
                        "Id": "fitness",
                        "Type": "fitness",
                        "Name": "Fitness"
                    },
                    "Name": "Pilates for beginners",
                    "Description": "Not just for fitness fanatics, Pilates can help you build core muscles for better posture, balance and flexibility.",
                    "Type": "ARTICLE",
                    "Version": "0.0"
                },
                {
                    "Images": [
                        {
                            "Type": "DAILYCONTENTLISTIMAGE",
                            "Value": "healthyeating_FAQ-20058387x440.jpg"
                        },
                        {
                            "Type": "DAILYCONTENTLISTIMAGEURL",
                            "Value": "https://content.mcmapp.mayoclinic.org/api/Content/Image/mymayoclinic/image/images?imageId=healthyeating_FAQ-20058387x440.jpg&width=&height="
                        },
                        {
                            "Type": "DAILYCONTENTITEMIMAGE",
                            "Value": "healthyeating_FAQ-20058387x1136.jpg"
                        },
                        {
                            "Type": "DAILYCONTENTITEMIMAGEURL",
                            "Value": "https://content.mcmapp.mayoclinic.org/api/Content/Image/mymayoclinic/image/images?imageId=healthyeating_FAQ-20058387x1136.jpg&width=&height="
                        }
                    ],
                    "IsScheduled": true,
                    "Author": {
                        "Name": "Katherine Zeratsky, R.D., L.D.",
                        "Photo": ""
                    },
                    "ReadTime": "0",
                    "Id": "FAQ-20058387",
                    "Category": {
                        "Id": "healthyeating",
                        "Type": "healthyeating",
                        "Name": "Healthy Eating"
                    },
                    "Name": "How to store leftover restaurant food",
                    "Description": "Takeout containers aren't the best for storing leftovers. Wrap or repackage food to keep it fresher and safer.",
                    "Type": "ARTICLE",
                    "Version": "0.0"
                },
                {
                    "Images": [
                        {
                            "Type": "DAILYCONTENTLISTIMAGE",
                            "Value": "brainandspinehealth_FAQ-20058505x440.jpg"
                        },
                        {
                            "Type": "DAILYCONTENTLISTIMAGEURL",
                            "Value": "https://content.mcmapp.mayoclinic.org/api/Content/Image/mymayoclinic/image/images?imageId=brainandspinehealth_FAQ-20058505x440.jpg&width=&height="
                        },
                        {
                            "Type": "DAILYCONTENTITEMIMAGE",
                            "Value": "brainandspinehealth_FAQ-20058505x1136.jpg"
                        },
                        {
                            "Type": "DAILYCONTENTITEMIMAGEURL",
                            "Value": "https://content.mcmapp.mayoclinic.org/api/Content/Image/mymayoclinic/image/images?imageId=brainandspinehealth_FAQ-20058505x1136.jpg&width=&height="
                        },
                        {
                            "Type": "TODAYCONTENTITEMIMAGE",
                            "Value": "brainandspinehealth_FAQ-20058505x2160.jpg"
                        },
                        {
                            "Type": "TODAYCONTENTITEMIMAGEURL",
                            "Value": "https://content.mcmapp.mayoclinic.org/api/Content/Image/mymayoclinic/image/images?imageId=brainandspinehealth_FAQ-20058505x2160.jpg&width=&height="
                        },
                        {
                            "Type": "IMAGEGRADIENT",
                            "Value": "LIGHT"
                        }
                    ],
                    "IsScheduled": true,
                    "Author": {
                        "Name": "Jerry W. Swanson, M.D.",
                        "Photo": ""
                    },
                    "ReadTime": "0",
                    "Id": "FAQ-20058505",
                    "Category": {
                        "Id": "brainandspinehealth",
                        "Type": "brainandspinehealth",
                        "Name": "Brain and Spine Health"
                    },
                    "Name": "How weather changes can affect your migraines",
                    "Description": "Migraines &mdash; Are they triggered by weather changes?",
                    "Type": "ARTICLE",
                    "Version": "0.0"
                }
            ]
        }
    ]
}
